MappingMetricsFile R6 Class — MappingMetricsFile • dracarys
…
Usage

MappingMetricsFile$clone(deep = FALSE)

Arguments

deep
Whether to make a deep clone.

    Examples

x <- system.file("extdata/wgs/SEQC-II.mapping_metrics.csv.gz", package = "dracarys")
mm <- MappingMetricsFile$new(x)
mm$read() # or read(mm)
#> # A tibble: 218 × 7
#>    category Phenotype RG    var                         var_abbrev   count   pct
#>    <chr>    <chr>     <chr> <chr>                       <chr>        <dbl> <dbl>
#>  1 summary  tumor     TOTAL Total Reads per RG          Tot         2.20e9 100  
#>  2 summary  tumor     TOTAL Number of duplicate marked… Dup         4.43e8  20.2
#>  3 summary  tumor     TOTAL Number of duplicate marked… Dup Rem    NA       NA  
#>  4 summary  tumor     TOTAL Number of unique reads (ex… Unique      1.76e9  79.8
#>  5 summary  tumor     TOTAL Reads with mate sequenced   Mated       2.20e9 100  
#>  6 summary  tumor     TOTAL Reads without mate sequenc… noMated     0        0  
#>  7 summary  tumor     TOTAL QC-failed reads             Failed      0        0  
#>  8 summary  tumor     TOTAL Mapped reads                Mapped      2.20e9  99.8
#>  9 summary  tumor     TOTAL Mapped reads adjusted for … Mapped re…  2.20e9  99.8
#> 10 summary  tumor     TOTAL Mapped reads R1             R1map       1.10e9 100. 
#> # ℹ 208 more rows
…
