ReplayFile R6 Class — ReplayFile • dracarys
…
r <- ReplayFile$new(x)
r$read() # or read(r)
#> $command_line
#> [1] "/opt/edico/bin/dragen --enable-variant-caller true --intermediate-results-dir /ephemeral/intermediate-results/ --cnv-use-somatic-vc-baf true --enable-cnv true --enable-duplicate-marking true --enable-map-align-output true --enable-sv true --fastq-list /ZnDLLh/fastq_list.csv --lic-instance-id-location /opt/instance-identity --output-directory SEQC-II_dragen_somatic --output-file-prefix SEQC-II --ref-dir /ephemeral/ref/hg38-v8-altaware-cnv-anchored/ --tumor-fastq-list /ZnDLLh/tumor_fastq_list.csv"
#> 
#> $hash_table_build
#> # A tibble: 3 × 2
#>   name                 value                                                    
#>   <chr>                <chr>                                                    
#> 1 sw_version           01.003.044.3.5.3-38-gefdaeaff                            
#> 2 hash_table_version   8                                                        
#> 3 command_line_options /opt/edico/bin/dragen --lic-instance-id-location /root/.…
#> 
#> $dragen_config
#> # A tibble: 470 × 2
#>    name                    value
#>    <chr>                   <chr>
#>  1 Aligner.align-direction 4    
#>  2 Aligner.aln-en-mask     15   
#>  3 Aligner.aln-enable      1    
#>  4 Aligner.backtrace-delay 8    
#>  5 Aligner.bed-score-bonus 0    
#>  6 Aligner.chicken         0    
#>  7 Aligner.dedup-min-qual  15   
#>  8 Aligner.disable-lfsr    0    
#>  9 Aligner.en-alt-hap-aln  1    
#> 10 Aligner.en-chimeric-aln 1    
#> # … with 460 more rows
…
