TsoSampleAnalysisResultsFile R6 Class — TsoSampleAnalysisResultsFile • dracarys
…
#> 4 COSMIC               84          somatic mutation and related det… 2018-02-13 
#> 5 dbSNP                151         Identifiers for observed variants 2018-04-23 
#> 6 gnomAD               2.1         Whole genome allele frequencies … 2018-10-17 
#> 7 gnomAD_exome         2.1         Exome allele frequencies from Ge… 2018-10-17 
#> 
#> $sw_conf_other
#> # A tibble: 1 × 7
#>   analysisSoftwareName analysisSoftwareVersion genomeBuild       instanceName
#>   <chr>                <chr>                   <chr>             <chr>       
#> 1 TSO500_ctDNA_RnD     0.0.0.1                 hg19_decoy/grch37 CDxNirvana  
#> # ℹ 3 more variables: nirvanaSoftwareVersion <chr>, genomeAssembly <chr>,
#> #   refseqVersion <chr>
#> 
#> $snv
#> # A tibble: 1,980 × 29
#>    chrom    pos ref   alt       af  qual dp_tot dp_alt transcript source bioType
#>    <chr>  <int> <chr> <chr>  <dbl> <dbl>  <int>  <int> <chr>      <chr>  <chr>  
#>  1 chr1  2.49e6 A     G     0.488    100   4917   2402 NM_003820… RefSeq protei…
#>  2 chr1  4.37e6 G     A     1.00     100   5272   5271 NA         NA     NA     
#>  3 chr1  9.78e6 G     A     0.0016   100   7923     13 NM_005026… RefSeq protei…
#>  4 chr1  9.78e6 G     A     0.0017   100   7471     13 NM_005026… RefSeq protei…
#>  5 chr1  9.78e6 G     A     0.0013   100   6136      8 NM_005026… RefSeq protei…
#>  6 chr1  9.78e6 C     T     0.0019   100   4699      9 NM_005026… RefSeq protei…
#>  7 chr1  1.12e7 C     T     1.00     100   5856   5854 NM_004958… RefSeq protei…
#>  8 chr1  1.13e7 C     G     0.0032   100    950      3 NM_004958… RefSeq protei…
#>  9 chr1  1.13e7 G     A     1.00     100   8997   8995 NM_004958… RefSeq protei…
#> 10 chr1  1.13e7 C     T     0.0021   100   3809      8 NM_004958… RefSeq protei…
#> # ℹ 1,970 more rows
#> # ℹ 18 more variables: aminoAcids <chr>, cdnaPos <chr>, codons <chr>,
#> #   cdsPos <chr>, exons <chr>, geneId <chr>, hgnc <chr>, hgvsc <chr>,
#> #   hgvsp <chr>, isCanonical <lgl>, polyPhenScore <dbl>,
#> #   polyPhenPrediction <chr>, proteinId <chr>, proteinPos <chr>,
#> #   siftScore <dbl>, siftPrediction <chr>, consequence <chr>, introns <chr>
…
