VCMetricsFile R6 Class — VCMetricsFile • dracarys
…
Usage

VCMetricsFile$clone(deep = FALSE)

Arguments

deep
Whether to make a deep clone.

    Examples

x <- system.file("extdata/wgs/SEQC-II.vc_metrics.csv.gz", package = "dracarys")
vm <- VCMetricsFile$new(x)
vm$read() # or read(vm)
#> # A tibble: 45 × 5
#>    category  sample           var                    count    pct
#>    <chr>     <chr>            <chr>                  <dbl>  <dbl>
#>  1 summary   ""               Number of samples          1  NA   
#>  2 summary   ""               Reads Processed   2617162106  NA   
#>  3 summary   ""               Child Sample              NA  NA   
#>  4 prefilter "SEQC-II_tumour" Total                 177975 100   
#>  5 prefilter "SEQC-II_tumour" Biallelic             177975 100   
#>  6 prefilter "SEQC-II_tumour" Multiallelic               0   0   
#>  7 prefilter "SEQC-II_tumour" SNPs                  143829  80.8 
#>  8 prefilter "SEQC-II_tumour" Insertions (Hom)           0   0   
#>  9 prefilter "SEQC-II_tumour" Insertions (Het)       16354   9.19
#> 10 prefilter "SEQC-II_tumour" Deletions (Hom)            0   0   
#> # ℹ 35 more rows
…
